fifoRTL_sc/fifo_trace.vcd
$date
     Apr 28, 2026       10:16:18
$end

$version
 SystemC 2.3.3-Accellera --- Apr 13 2026 13:52:27
$end

$timescale
     1 ps
$end

$scope module SystemC $end
$var wire    1  aaaaa  clk       $end
$var wire    1  aaaab  reset       $end
$var wire    1  aaaac  in_valid       $end
$var wire    1  aaaad  in_ready       $end
$var wire   32  aaaae  in_data [31:0]  $end
$var wire    1  aaaaf  out_valid       $end
$var wire    1  aaaag  out_ready       $end
$var wire   32  aaaah  out_data [31:0]  $end
$upscope $end
$enddefinitions  $end

$comment
All initial values are dumped below at time 0 sec = 0 timescale units.
$end

$dumpvars
1aaaaa
1aaaab
0aaaac
1aaaad
b0 aaaae
0aaaaf
0aaaag
b0 aaaah
$end

#5000
0aaaaa

#10000
1aaaaa
0aaaab

#15000
0aaaaa

#20000
1aaaaa
1aaaac
b1010 aaaae

#25000
0aaaaa

#30000
1aaaaa
b1011 aaaae
1aaaaf

#35000
0aaaaa

#40000
1aaaaa
b1100 aaaae

#45000
0aaaaa

#50000
1aaaaa
b1101 aaaae

#55000
0aaaaa

#60000
1aaaaa
0aaaac
0aaaad
1aaaag
b1010 aaaah

#65000
0aaaaa

#70000
1aaaaa
1aaaad
b1011 aaaah

#75000
0aaaaa

#80000
1aaaaa
0aaaag

#85000
0aaaaa

#90000
1aaaaa

#95000
0aaaaa

#100000
1aaaaa
1aaaag
b1100 aaaah

#105000
0aaaaa

#110000
1aaaaa
b1101 aaaah

#115000
0aaaaa

#120000
1aaaaa
0aaaaf
0aaaag

